<?xml version="1.0" encoding="UTF-8" standalone="no"?>
<!-- Created with Inkscape (http://www.inkscape.org/) -->

<svg
   xmlns:dc="http://purl.org/dc/elements/1.1/"
   xmlns:cc="http://creativecommons.org/ns#"
   xmlns:rdf="http://www.w3.org/1999/02/22-rdf-syntax-ns#"
   xmlns:svg="http://www.w3.org/2000/svg"
   xmlns="http://www.w3.org/2000/svg"
   xmlns:sodipodi="http://sodipodi.sourceforge.net/DTD/sodipodi-0.dtd"
   xmlns:inkscape="http://www.inkscape.org/namespaces/inkscape"
   id="svg2"
   xml:space="preserve"
   height="434.89"
   viewBox="0 0 691.94342 434.89349"
   width="691.94"
   version="1.1"
   inkscape:version="0.91 r13725"
   sodipodi:docname="Solstice Ridge.svg"><defs
     id="defs167">



















</defs><sodipodi:namedview
     pagecolor="#ffffff"
     bordercolor="#666666"
     borderopacity="1"
     objecttolerance="10"
     gridtolerance="10"
     guidetolerance="10"
     inkscape:pageopacity="0"
     inkscape:pageshadow="2"
     inkscape:window-width="1280"
     inkscape:window-height="657"
     id="namedview165"
     showgrid="false"
     inkscape:snap-bbox="true"
     inkscape:bbox-paths="true"
     inkscape:bbox-nodes="true"
     inkscape:snap-bbox-edge-midpoints="true"
     inkscape:snap-bbox-midpoints="true"
     inkscape:object-paths="true"
     inkscape:snap-intersection-paths="true"
     inkscape:object-nodes="true"
     inkscape:snap-smooth-nodes="true"
     inkscape:snap-midpoints="true"
     inkscape:snap-object-midpoints="true"
     inkscape:snap-center="true"
     inkscape:zoom="1.1075274"
     inkscape:cx="345.97377"
     inkscape:cy="217.46466"
     inkscape:window-x="-8"
     inkscape:window-y="-8"
     inkscape:window-maximized="1"
     inkscape:current-layer="svg2" /><metadata
     id="metadata8"><rdf:RDF><cc:Work
         rdf:about=""><dc:format>image/svg+xml</dc:format><dc:type
           rdf:resource="http://purl.org/dc/dcmitype/StillImage" /><dc:title /></cc:Work></rdf:RDF></metadata>
<style type="text/css" id="style10">
              text{
                  pointer-events:none;
                  -webkit-user-select: none; -moz-user-select: none; -khtml-user-select: none;-ms-user-select: none;
                }
             .land{fill-opacity:1 !important;}
      </style>
           <g
     id="g3686"><path
       id="path3598"
       d="M 691.643,178.5 C 669.707,133.76 639.222,92.317 580.383,62.06 c -5.9296,-3.0489 -4.5116,-6.8444 -3.6529,-10.67 2.6797,-11.936 6.4167,-28.255 5.3356,-50.987 l -21.755,11.782 c -0.32105,9.795 -0.0739,21.104 -3.4896,31.247 -2.4843,6.3761 -6.474,6.696 -11.357,4.9895 -14.336,-5.0105 -27.918,-12.614 -41.423,-19.858 l -27.474,9.3384 c 12.866,8.1606 35.22,17.398 56.922,28.089 5.4551,2.5555 7.7555,6.1626 4.2292,11.712 -12.136,25.792 -46.373,36.329 -57.926,35.066 -22.779,-2.4892 -44.782,-2.3357 -65.876,2.4452 -27.669,5.6756 -48.236,19.767 -67.008,32.919 -19.303,14.434 -37.69,26.117 -55.824,37.042 -29.907,18.283 -61.437,36.566 -93.325,54.849 -16.191,9.4652 -34.712,19.397 -52.418,29.165 -15.739,8.7534 -30.915,17.152 -43.807,27.397 -3.5073,2.7873 -5.6879,6.1743 -9.0576,9.1852 -24.393,21.796 -56.173,39.551 -91.83,40.83 l -0.39606,17.427 c 7.7566,0.41857 14.908,1.7265 14.789,13.728 l 17.031,2.4681 0.21592,-2.288 1.6,-14.12 c 0.23872,-6.1457 12.07,-9.7376 19.25,-12.25 11.304,-3.4768 20.534,-9.89 29.625,-16.5 l 3.572,-2.499 c 11.635,-8.6848 21.452,-16.688 30.428,-24.376 10.125,-9.2967 21.912,-16.377 34.015,-23.037 l 57.85,-31.09 29.26,-16.75 c 24.55,-14.022 45.922,-27.193 67.784,-40.32 9.5439,-5.8117 19.52,-11.623 27.817,-17.435 7.462,-4.5152 13.076,-9.0304 18.756,-13.546 5.3578,-3.9067 10.263,-7.7191 16.246,-11.733 16.379,-10.99 27.84,-15.593 45.962,-20.683 9.5617,-2.6858 20.101,-5.0695 28.154,-4.7622 l 38.142,1.4553 c 11.421,0.43577 25.618,-3.5358 35.527,-8.7138 10.886,-5.6888 6.4794,0.59687 18.812,5.3765 23.282,11.178 39.351,-22.883 23.261,-35.605 -2.8316,-2.4374 -4.2284,-4.9299 -0.97226,-7.6014 l 2.6516,-3.7123 c 2.1638,-3.1736 5.1762,-3.1028 8.7504,-0.88388 37.729,18.529 67.554,50.67 85.56,80.257 l 20.146,38.726 z"
       inkscape:connector-curvature="0"
       style="fill:#ffffff;fill-rule:evenodd;stroke:#000000;stroke-width:0.2" /><path
       id="path4614"
       d="m 561.653,11.46 c -0.28273,9.5637 -0.0374,22.239 -3.4694,32.43 -0.007,0.021 -0.0151,0.0418 -0.0234,0.0625 -1.3336,3.4227 -3.2609,5.5352 -5.6484,6.3613 -2.3875,0.82616 -4.9368,0.36558 -7.5195,-0.53711 -14.3,-4.9978 -29.411,-13.464 -42.721,-20.611 l -23.842,8.1035 c 12.951,7.671 35.265,17.372 55.682,27.429 2.8858,1.3539 5.1546,3.0531 6.1816,5.4629 1.0287,2.4136 0.5511,5.2979 -1.3633,8.3106 l 0.0879,-0.1582 c -6.2572,13.298 -18.123,22.554 -29.844,28.354 -11.72,5.7994 -23.18,8.224 -29.537,7.5293 -22.673,-2.4777 -44.512,-2.3168 -65.402,2.418 -0.009,0.002 -0.0182,0.004 -0.0273,0.006 -27.331,5.6063 -47.684,19.525 -66.438,32.664 -19.356,14.473 -37.789,26.184 -55.943,37.121 -29.924,18.293 -61.463,36.582 -93.352,54.865 l 0.01,-0.008 c -16.225,9.4851 -34.754,19.421 -52.449,29.184 l 0.004,-0.004 c -15.741,8.7544 -30.85,17.124 -43.611,27.266 -3.2906,2.6151 -5.4529,5.9704 -8.9922,9.1328 -24.254,21.672 -57.273,39.262 -92.815,40.956 l -0.33789,14.84 c 3.4675,0.24478 8.3464,0.82009 11.129,2.7273 2.9244,2.0042 5.2646,7.3176 4.8325,12.568 l 14.402,2.0859 1.8219,-16.364 -0.008,0.10547 c 0.0773,-1.9906 1.1034,-3.7138 2.5234,-5.1172 1.4201,-1.4034 3.2606,-2.5619 5.2812,-3.5918 4.0414,-2.0598 8.8452,-3.5944 12.404,-4.8398 0.0175,-0.006 0.035,-0.0107 0.0527,-0.0156 11.04,-3.3955 20.129,-9.6912 29.203,-16.289 0.007,-0.005 0.0143,-0.0105 0.0215,-0.0156 l 3.5352,-2.4727 c 11.606,-8.6634 21.396,-16.645 30.354,-24.316 l -0.0371,0.0332 c 10.266,-9.4265 22.16,-16.561 34.295,-23.238 l 0.0117,-0.006 57.842,-31.08 29.234,-16.74 c 24.522,-14.007 45.881,-27.17 67.75,-40.301 l 0.008,-0.004 c 9.5581,-5.8202 19.51,-11.621 27.347,-16.757 7.8374,-5.1358 13.387,-9.5977 18.916,-13.818 5.529,-4.2202 10.492,-8.002 18.403,-13.332 15.861,-10.686 27.559,-15.377 44.488,-19.648 9.9897,-2.5202 20.003,-5.1336 28.574,-4.8066 l 38.143,1.4551 c 11.044,0.42137 25.13,-3.4958 34.807,-8.5527 2.7825,-1.454 4.6514,-2.2161 6.3144,-2.3887 1.663,-0.17256 3.0718,0.46032 4.1172,1.3066 2.0908,1.6926 3.6498,4.1002 9.5644,6.3926 0.0344,0.013 0.0683,0.0274 0.10156,0.043 5.5059,2.6435 10.392,2.5802 14.562,0.9043 4.1704,-1.6759 7.6381,-5.0399 9.9609,-9.1543 2.3228,-4.1144 3.4791,-8.9577 3.1133,-13.441 -0.36584,-4.4837 -2.2,-8.5769 -5.8867,-11.492 -0.0152,-0.0127 -0.0302,-0.0258 -0.0449,-0.0391 -1.5107,-1.3004 -2.8081,-2.6735 -3.2305,-4.4726 -0.42238,-1.7991 0.40806,-3.7877 2.2832,-5.3262 l -0.25781,0.27539 2.6348,-3.6856 c 1.2593,-1.847 3.0179,-2.9553 4.9316,-3.0879 1.9138,-0.13258 3.8268,0.5918 5.7617,1.793 l -0.125,-0.0703 c 38.05,18.686 68.02,51.005 86.152,80.799 0.0166,0.0275 0.0322,0.0555 0.0469,0.084 l 20.02,38.076 15.123,-17.316 c -21.827,-44.256 -52.861,-86.259 -111.03,-116.17 -3.2215,-1.6564 -4.7868,-3.8526 -5.1348,-6.1016 -0.34799,-2.2489 0.32168,-4.3112 0.73633,-6.1582 2.5813,-11.498 5.9378,-28.614 5.2389,-49.862 -6.3055,3.4155 -12.611,6.831 -18.917,10.246 z"
       inkscape:connector-curvature="0"
       style="fill:#666666;fill-rule:evenodd" /><path
       id="path3559"
       d="m 414.903,47.14 -0.98667,68.081 c 10.265,-2.3142 21.298,-3.6544 33.269,-3.975 l 1.0623,-66.835 z"
       inkscape:connector-curvature="0"
       style="fill:#cccccc;fill-rule:evenodd;stroke:#000000;stroke-width:0.2" /><path
       id="path3561"
       d="m 448.253,44.41 -1.0623,66.835 c 10.4,-0.24198 21.648,0.26809 32.607,1.5298 l 1.2045,-65.663 z"
       inkscape:connector-curvature="0"
       style="fill:#cccccc;fill-rule:evenodd;stroke:#000000;stroke-width:0.2" /><path
       id="path3563"
       d="m 500.493,127.67 c 5.0237,-1.3962 10.264,-3.1906 15.791,-6.0909 2.7208,-1.1244 6.3694,-3.7746 9.1308,-1.0132 2.5231,2.5231 5.1814,4.5989 9.6808,6.3897 l 20.418,77.243 -33.342,1.6993 z"
       inkscape:connector-curvature="0"
       style="fill:#cccccc;fill-rule:evenodd;stroke:#000000;stroke-width:0.2" /><path
       id="path3565"
       d="m 467.273,129.78 10.613,0.40492 c 7.8689,0.55786 15.903,-0.75946 22.606,-2.5134 l 21.679,78.228 -33.097,1.6868 z"
       inkscape:connector-curvature="0"
       style="fill:#cccccc;fill-rule:evenodd;stroke:#000000;stroke-width:0.2" /><path
       id="path3567"
       d="m 433.293,129.48 c 6.3377,-0.843 7.9947,-0.72973 14.415,-0.44037 l 19.566,0.74651 21.8,77.807 -34.287,1.7474 z"
       inkscape:connector-curvature="0"
       style="fill:#cccccc;fill-rule:evenodd;stroke:#000000;stroke-width:0.2" /><path
       id="path3569"
       d="m 399.613,138.2 c 11.114,-3.5251 17.936,-5.936 33.681,-8.7238 l 21.495,79.86 -32.189,1.6405 z"
       inkscape:connector-curvature="0"
       style="fill:#cccccc;fill-rule:evenodd;stroke:#000000;stroke-width:0.2" /><path
       id="path3571"
       d="m 368.503,154.29 c 11.205,-7.7659 21.739,-12.669 31.113,-16.087 l 22.987,72.777 -6.7073,0.34184 -22.568,13.021 z"
       inkscape:connector-curvature="0"
       style="fill:#cccccc;fill-rule:evenodd;stroke:#000000;stroke-width:0.2" /><path
       id="path3573"
       d="m 333.503,179.57 c 7.2606,-4.1947 12.918,-8.8989 18.756,-13.546 5.1265,-3.863 10.154,-7.7095 16.246,-11.733 l 24.825,70.053 -25.506,14.716 z"
       inkscape:connector-curvature="0"
       style="fill:#cccccc;fill-rule:evenodd;stroke:#000000;stroke-width:0.2" /><path
       id="path3575"
       d="m 305.683,197 c 9.7181,-5.7671 19.263,-11.552 27.817,-17.435 l 34.321,59.49 -28.658,16.535 z"
       inkscape:connector-curvature="0"
       style="fill:#cccccc;fill-rule:evenodd;stroke:#000000;stroke-width:0.2" /><path
       id="path3577"
       d="m 265.903,220.95 39.774,-23.945 33.48,58.589 -39.638,22.87 z"
       inkscape:connector-curvature="0"
       style="fill:#cccccc;fill-rule:evenodd;stroke:#000000;stroke-width:0.2" /><path
       id="path3579"
       d="m 237.903,237.32 28.009,-16.374 33.616,57.514 -28.355,16.36 z"
       inkscape:connector-curvature="0"
       style="fill:#cccccc;fill-rule:evenodd;stroke:#000000;stroke-width:0.2" /><path
       id="path3581"
       d="m 208.643,254.07 29.25,-16.75 33.271,57.499 -28.428,16.402 z"
       inkscape:connector-curvature="0"
       style="fill:#cccccc;fill-rule:evenodd;stroke:#000000;stroke-width:0.2" /><path
       id="path3583"
       d="m 179.723,269.61 28.92,-15.54 34.092,57.152 -29.27,16.888 z"
       inkscape:connector-curvature="0"
       style="fill:#cccccc;fill-rule:evenodd;stroke:#000000;stroke-width:0.2" /><path
       id="path3585"
       d="m 150.793,285.16 28.93,-15.544 33.752,58.496 -28.372,16.37 z"
       inkscape:connector-curvature="0"
       style="fill:#cccccc;fill-rule:evenodd;stroke:#000000;stroke-width:0.2" /><path
       id="path3587"
       d="m 116.773,308.2 c 10.993,-9.7429 22.808,-17.093 34.015,-23.037 l 34.309,59.321 -24.608,14.198 z"
       inkscape:connector-curvature="0"
       style="fill:#cccccc;fill-rule:evenodd;stroke:#000000;stroke-width:0.2" /><path
       id="path3589"
       d="m 86.343,332.57 c 10.757,-8.1692 21.299,-16.323 30.428,-24.376 l 43.716,50.483 -1.0052,0.57996 -22.351,23.861 z"
       inkscape:connector-curvature="0"
       style="fill:#cccccc;fill-rule:evenodd;stroke:#000000;stroke-width:0.2" /><path
       id="path3591"
       d="m 53.143,351.57 c 7.5513,-2.3843 12.866,-5.3279 17.781,-8.3712 4.4494,-2.8254 8.2813,-5.5082 11.844,-8.1288 l 51.346,51.266 -22.777,24.316 z"
       inkscape:connector-curvature="0"
       style="fill:#cccccc;fill-rule:evenodd;stroke:#000000;stroke-width:0.2" /><path
       id="path3593"
       d="m 32.293,377.94 1.61,-14.12 c 0.041,-6.0397 12.094,-9.705 19.25,-12.25 l 58.193,59.082 -22.368,23.879 C 70.039,415.55 50.255,394.487 32.295,377.94 Z"
       inkscape:connector-curvature="0"
       style="fill:#cccccc;fill-rule:evenodd;stroke:#000000;stroke-width:0.2" /><path
       class="land" id="DH_SR_USR_L1"
       d="m 446.393,46.4 -29.676,2.4297 -0.93164,64.219 c 9.2367,-1.939 19.061,-3.1323 29.605,-3.5078 0.3388,-21.04657 0.66103,-42.09568 1.00264,-63.1409 z"
       inkscape:connector-curvature="0"
       sodipodi:nodetypes="ccccc"
       style="fill:#d3f6d4;fill-rule:evenodd" /><g
       transform="translate(-76.9793,-340.185)"
       id="layer1"><path
         sodipodi:nodetypes="ccccccccccccccscccccccccccccc"
         style="fill:none;stroke:#ff0000;stroke-width:0.69999999;stroke-dasharray:4.2, 0.7"
         inkscape:connector-curvature="0"
         d="m 637.29,352.37 c -0.32105,9.795 -0.0739,21.104 -3.4896,31.247 -2.4843,6.3761 -6.474,6.696 -11.357,4.9895 -14.336,-5.0105 -27.918,-12.614 -41.423,-19.858 l -27.474,9.3384 4.4297,9.2047 -32.75147,-2.7006 -33.34253,2.7274 -0.98667,68.081 c -27.669,5.6756 -48.236,19.767 -67.008,32.919 -19.303,14.434 -37.69,26.117 -55.824,37.042 -29.907,18.283 -61.437,36.566 -93.325,54.849 -16.191,9.4652 -34.712,19.397 -52.418,29.165 -15.739,8.7534 -30.915,17.152 -43.807,27.397 -3.5073,2.7873 -5.6879,6.1743 -9.0576,9.1852 -24.393,21.796 -56.173,39.551 -91.83,40.83 l -0.39606,17.427 c 7.7566,0.41857 14.908,1.7265 14.789,13.728 l 17.031,2.4681 0.21592,-2.288 c 17.838,16.4 37.788,37.727 56.683,56.591 l 70.511,-75.274 256.41,-147.94 258.6,-13.18 17.151,-19.64 c -21.936,-44.74 -52.421,-86.183 -111.26,-116.44 -5.9296,-3.0489 -4.5116,-6.8444 -3.6529,-10.67 2.6797,-11.936 6.4167,-28.255 5.3356,-50.987 z"
         id="path3556" /></g><path
       class="land" id="DH_SR_USR_L2"
       d="m 450.163,46.52 -0.99609,62.809 c 9.2585,-0.131 19.042,0.31685 28.725,1.3438 l 1.1348,-61.771 C 469.40622,48.10119 459.78238,47.32466 450.163,46.52 Z"
       inkscape:connector-curvature="0"
       sodipodi:nodetypes="ccccc"
       style="fill:#d3f6d4;fill-rule:evenodd" /><path
       class="land" id="DH_SR_USR_L3"
       d="m 522.903,121.3 c -1.14113,-0.40804 -3.5278,1.0799 -7.1382,2.8473 -3.61039,1.7674 -8.36329,3.4368 -12.93029,4.7855 l 20.777,74.969 29.438,-1.5 -19.6,-74.15 c -4.50167,-1.11015 -6.88232,-5.64157 -10.54651,-6.9518 z"
       inkscape:connector-curvature="0"
       sodipodi:nodetypes="scccccs"
       style="fill:#d3f6d4;fill-rule:evenodd" /><path
       class="land" id="DH_SR_USR_L4"
       d="m 499.153,129.84 c -11.06233,2.61705 -18.59616,2.32325 -29.3736,1.91216 l 20.701,73.883 29.264,-1.4902 C 512.88461,179.37589 506.01,154.60838 499.153,129.84 Z"
       inkscape:connector-curvature="0"
       sodipodi:nodetypes="ccccc"
       style="fill:#d3f6d4;fill-rule:evenodd" /><path
       class="land" id="DH_SR_USR_L5"
       d="m 435.804,131.22578 20.473,76.064 30.242,-1.541 -20.75,-74.053 c -10.05746,0.007 -21.63135,-1.924 -29.965,-0.47 z"
       inkscape:connector-curvature="0"
       sodipodi:nodetypes="ccccc"
       style="fill:#d3f6d4;fill-rule:evenodd" /><path
       class="land" id="DH_SR_USR_L6"
       d="m 431.933,131.72 c -13.13,2.4167 -19.302,4.4392 -29.922,7.7363 l 21.965,69.539 28.367,-1.4453 -20.41,-75.83 z"
       inkscape:connector-curvature="0"
       style="fill:#d3f6d4;fill-rule:evenodd" /><path
       class="land" id="DH_SR_USR_L7"
       d="m 398.383,140.51 c -10.124,4.2404 -18.064,8.289 -27.639,14.533 l 23.588,66.559 18.17983,-10.49098 c 1.04799,-0.63404 2.1716,-1.35576 3.28111,-1.65906 l 4.2969,-0.21875 C 412.52938,185.29474 404.85305,160.99654 398.383,140.51 Z"
       inkscape:connector-curvature="0"
       sodipodi:nodetypes="ccccccc"
       style="fill:#d3f6d4;fill-rule:evenodd" /><path
       class="land" id="DH_SR_USR_L8"
       d="m 367.553,157.31 c -11.1215,7.236 -21.31452,16.57505 -31.519,22.844 l 32.482,56.299 22.488,-12.973 z"
       inkscape:connector-curvature="0"
       sodipodi:nodetypes="ccccc"
       style="fill:#d3f6d4;fill-rule:evenodd" /><path
       class="land" id="DH_SR_USR_L9"
       d="m 332.893,182.09 c -7.7488,5.2487 -16.173,10.408 -24.795,15.537 l 31.727,55.52 25.557,-14.746 C 354.54707,219.63396 343.73079,200.85437 332.893,182.09 Z"
       inkscape:connector-curvature="0"
       sodipodi:nodetypes="ccccc"
       style="fill:#d3f6d4;fill-rule:evenodd" /><path
       class="land" id="DH_SR_USR_L10"
       d="m 305.083,199.29 -36.922,22.23 31.959,54.684 36.785,-21.225 -31.822,-55.689 z"
       inkscape:connector-curvature="0"
       style="fill:#d3f6d4;fill-rule:evenodd" /><path
       class="land" id="DH_SR_USR_L11"
       d="m 265.313,223.19 -25.178,14.721 31.629,54.662 25.502,-14.713 -31.953,-54.67 z"
       inkscape:connector-curvature="0"
       style="fill:#d3f6d4;fill-rule:evenodd" /><path
       class="land" id="DH_SR_USR_L12"
       d="m 237.333,239.42 -26.553,15.205 32.508,54.498 25.773,-14.871 C 258.4907,275.97213 247.89867,257.69949 237.333,239.42 Z"
       inkscape:connector-curvature="0"
       sodipodi:nodetypes="ccccc"
       style="fill:#d3f6d4;fill-rule:evenodd" /><path
       class="land" id="DH_SR_USR_L13"
       d="m 208.083,256.09 -26.275,14.119 32.213,55.828 26.625,-15.359 C 229.78649,292.48533 218.94531,274.27999 208.083,256.09 Z"
       inkscape:connector-curvature="0"
       sodipodi:nodetypes="ccccc"
       style="fill:#d3f6d4;fill-rule:evenodd" /><path
       class="land" id="DH_SR_USR_L14"
       d="m 179.163,271.58 -26.348,14.156 32.82,56.75 25.838,-14.91 c -10.7643,-18.66787 -21.55033,-37.32852 -32.31,-55.996 z"
       inkscape:connector-curvature="0"
       sodipodi:nodetypes="ccccc"
       style="fill:#d3f6d4;fill-rule:evenodd" /><path
       class="land" id="DH_SR_USR_L15"
       d="m 150.203,287.27 c -10.343,5.5655 -21.098,12.358 -31.207,21.115 l 41.826,48.301 22.141,-12.773 -32.76,-56.643 z"
       inkscape:connector-curvature="0"
       style="fill:#d3f6d4;fill-rule:evenodd" /><path
       class="land" id="DH_SR_USR_L16"
       d="m 116.583,310.46 c -8.4697,7.3831 -18.001,14.821 -27.783,22.264 l 48.287,48.059 20.99,-22.406 C 144.24928,342.40168 130.40826,326.43688 116.583,310.46 Z"
       inkscape:connector-curvature="0"
       sodipodi:nodetypes="ccccc"
       style="fill:#d3f6d4;fill-rule:evenodd" /><path
       class="land" id="DH_SR_USR_L17"
       d="m 82.603,336.89 c -8.21054,6.258 -17.9072,11.97038 -26.9667,15.1955 l 55.678,56.529 20.842,-22.25 C 115.63589,369.87609 99.12426,353.37574 82.603,336.89 Z"
       inkscape:connector-curvature="0"
       sodipodi:nodetypes="ccccc"
       style="fill:#d3f6d4;fill-rule:evenodd" /><path
       class="land" id="DH_SR_USR_L18"
       d="m 52.773,353.22 c -3.4958,1.2282 -7.82174,2.57048 -11.266,4.4356 -2.41223,1.30626 -5.95061,3.23704 -6.1758,6.1719 -0.34711,4.52384 -1.02284,9.04924 -1.5373,13.56834 17.554,16.226 36.735,36.562 55.158,55.068 l 20.41,-21.789 C 90.50297,391.52047 71.62735,372.37393 52.773,353.22 Z"
       inkscape:connector-curvature="0"
       sodipodi:nodetypes="csscccc"
       style="fill:#d3f6d4;fill-rule:evenodd" /><path
       inkscape:connector-curvature="0"
       d="m 174.3888,265.41044 -2.86804,1.58651 -2.19955,-3.97628 1.02546,-0.56725 1.77413,3.2072 1.84257,-1.01925 0.42544,0.76908 z"
       id="path3693"
       style="fill:#ffffff" /><path
       inkscape:connector-curvature="0"
       d="m 178.67826,263.03765 -1.06012,0.58642 -0.71968,-0.65165 -1.4741,0.81543 0.16958,0.95594 -1.03342,0.57166 -0.7308,-4.78875 1.18035,-0.65293 3.66831,3.16381 z m -2.43147,-0.65684 -1.27749,-1.15564 0.30012,1.69629 0.97734,-0.54063 z"
       id="path3695"
       style="fill:#ffffff" /><path
       inkscape:connector-curvature="0"
       d="m 182.96684,260.66534 -1.25778,0.69577 -2.0687,-0.9342 -0.0793,0.42403 0.71939,1.30048 -1.02546,0.56726 -2.19956,-3.97628 1.02546,-0.56726 0.99564,1.79988 0.425,-2.58573 1.1883,-0.65733 -0.53636,2.69967 2.81336,1.23377 z"
       id="path3697"
       style="fill:#ffffff" /><path
       inkscape:connector-curvature="0"
       d="m 186.34976,258.79401 -2.87601,1.59092 -2.19955,-3.97628 2.876,-1.59092 0.42543,0.76909 -1.85596,1.02666 0.37964,0.6863 1.72243,-0.9528 0.42543,0.76907 -1.72243,0.9528 0.54358,0.98267 1.85596,-1.02666 0.42544,0.76908 z"
       id="path3699"
       style="fill:#ffffff" /><path
       inkscape:connector-curvature="0"
       d="m 188.62015,252.34978 0.74952,4.7784 -1.14831,0.63521 -3.64959,-3.17417 1.07621,-0.59533 2.50645,2.26145 -0.5838,-3.32499 1.04944,-0.58052 z"
       id="path3701"
       style="fill:#ffffff" /><path
       inkscape:connector-curvature="0"
       d="m 193.5391,254.81709 -2.32857,1.2881 -0.38998,-0.705 0.65158,-0.36043 -1.41956,-2.56624 -0.65158,0.36043 -0.38998,-0.70498 2.32857,-1.2881 0.38998,0.70499 -0.65158,0.36043 1.41956,2.56624 0.65158,-0.36043 0.38998,0.70499 z"
       id="path3703"
       style="fill:#ffffff" /><path
       inkscape:connector-curvature="0"
       d="m 197.25628,252.76086 -2.876,1.59092 -2.19955,-3.97628 2.876,-1.59092 0.42543,0.76909 -1.85596,1.02666 0.37964,0.68629 1.72243,-0.95279 0.42543,0.76907 -1.72244,0.9528 0.54359,0.98267 1.85596,-1.02666 0.42544,0.76908 z"
       id="path3705"
       style="fill:#ffffff" /><path
       inkscape:connector-curvature="0"
       d="m 201.4089,245.27545 1.12868,4.56865 -1.13493,0.62781 -2.14588,-2.19589 0.73856,2.97437 -1.13493,0.62781 -3.27043,-3.3839 1.07088,-0.59238 2.12562,2.39886 -0.78241,-3.14188 1.02275,-0.56576 2.21108,2.35159 -0.8732,-3.09166 1.0441,-0.57756 z"
       id="path3707"
       style="fill:#ffffff" /><path
       inkscape:connector-curvature="0"
       d="m 208.82024,243.76988 q 0.30726,0.55545 0.2973,1.1364 -0.0114,0.57828 -0.26865,1.02747 -0.19358,0.33726 -0.50233,0.59872 -0.30877,0.26143 -0.7841,0.52437 l -1.402,0.77554 -2.19955,-3.97628 1.44198,-0.79766 q 0.48602,-0.26885 0.8843,-0.38106 0.39683,-0.11484 0.71988,-0.0983 0.5501,0.0235 1.02145,0.32079 0.47254,0.29313 0.79161,0.86993 z m -1.06447,0.57855 q -0.21715,-0.39255 -0.51499,-0.59051 -0.29663,-0.2021 -0.69356,-0.1883 -0.20039,0.01 -0.38073,0.0746 -0.17916,0.0607 -0.51029,0.24388 l -0.25903,0.14328 1.37672,2.4888 0.25903,-0.14329 q 0.36585,-0.20237 0.51904,-0.32894 0.15169,-0.12928 0.26585,-0.30749 0.19177,-0.31533 0.17489,-0.65476 -0.0183,-0.34209 -0.23696,-0.73731 z"
       id="path3709"
       style="fill:#ffffff" /><path
       inkscape:connector-curvature="0"
       d="m 211.40617,241.33376 q -0.0827,-0.14954 -0.20323,-0.22239 -0.1205,-0.0728 -0.30402,-0.0515 -0.12777,0.0149 -0.27108,0.0837 -0.14477,0.0661 -0.32903,0.16806 l -0.37118,0.20533 0.59237,1.07088 0.31511,-0.17431 q 0.24568,-0.1359 0.39794,-0.25155 0.15225,-0.11565 0.21715,-0.26312 0.061,-0.14186 0.0544,-0.26726 -0.005,-0.12954 -0.0985,-0.29778 z m 3.12554,1.87373 -1.25245,0.69282 -1.89074,-0.85835 -0.47267,0.26146 0.80657,1.45809 -1.02013,0.5643 -2.19955,-3.97628 1.71972,-0.9513 q 0.35249,-0.19499 0.62836,-0.29525 0.27586,-0.10025 0.57134,-0.0894 0.29818,0.009 0.5472,0.15069 0.25022,0.1371 0.42749,0.45755 0.24373,0.44062 0.19173,0.83209 -0.0493,0.38998 -0.32659,0.78401 l 2.26962,0.96956 z"
       id="path3711"
       style="fill:#ffffff" /><path
       inkscape:connector-curvature="0"
       d="m 217.13462,241.76479 -2.32857,1.28809 -0.38998,-0.70499 0.65158,-0.36044 -1.41956,-2.56624 -0.65159,0.36044 -0.38997,-0.70499 2.32857,-1.28809 0.38998,0.70498 -0.65158,0.36044 1.41956,2.56624 0.65158,-0.36044 0.38998,0.705 z"
       id="path3713"
       style="fill:#ffffff" /><path
       inkscape:connector-curvature="0"
       d="m 219.38315,235.33265 0.74952,4.7784 -1.14832,0.63521 -3.64959,-3.17417 1.07622,-0.59532 2.50644,2.26145 -0.5838,-3.325 1.04944,-0.58052 z"
       id="path3715"
       style="fill:#ffffff" /><path
       inkscape:connector-curvature="0"
       d="m 225.02838,237.39821 -2.876,1.59091 -2.19955,-3.97628 2.876,-1.59092 0.42543,0.76909 -1.85596,1.02666 0.37963,0.6863 1.72244,-0.9528 0.42543,0.76907 -1.72244,0.9528 0.54359,0.98267 1.85596,-1.02666 0.42543,0.76909 z"
       id="path3717"
       style="fill:#ffffff" /><path
       inkscape:connector-curvature="0"
       d="m 443.503,123.03 -3.2776,0 0,-4.5441 1.1719,0 0,3.6652 2.1057,0 0,0.87891 z"
       id="path3720"
       style="fill:#ffffff" /><path
       inkscape:connector-curvature="0"
       d="m 448.403,123.03 -1.2115,0 -0.31434,-0.91858 -1.6846,0 -0.31433,0.91858 -1.181,0 1.6785,-4.5441 1.3489,0 1.6785,4.5441 z m -1.8097,-1.7517 -0.55847,-1.6296 -0.55847,1.6296 1.1169,0 z"
       id="path3722"
       style="fill:#ffffff" /><path
       inkscape:connector-curvature="0"
       d="m 453.303,123.03 -1.4374,0 -1.358,-1.8188 -0.27466,0.33264 0,1.4862 -1.1719,0 0,-4.5441 1.1719,0 0,2.0569 1.6235,-2.0569 1.358,0 -1.7761,2.1027 1.8646,2.4414 z"
       id="path3724"
       style="fill:#ffffff" /><path
       inkscape:connector-curvature="0"
       d="m 457.173,123.03 -3.2867,0 0,-4.5441 3.2867,0 0,0.87891 -2.121,0 0,0.7843 1.9684,0 0,0.87891 -1.9684,0 0,1.123 2.121,0 0,0.87891 z"
       id="path3726"
       style="fill:#ffffff" /><path
       inkscape:connector-curvature="0"
       d="m 462.273,118.49 -1.6571,4.5441 -1.3123,0 -1.6571,-4.5441 1.2299,0 1.0986,3.1921 1.0986,-3.1921 1.1993,0 z"
       id="path3728"
       style="fill:#ffffff" /><path
       inkscape:connector-curvature="0"
       d="m 465.383,123.03 -2.6611,0 0,-0.80566 0.74463,0 0,-2.9327 -0.74463,0 0,-0.80567 2.6611,0 0,0.80567 -0.74463,0 0,2.9327 0.74463,0 0,0.80566 z"
       id="path3730"
       style="fill:#ffffff" /><path
       inkscape:connector-curvature="0"
       d="m 469.633,123.03 -3.2867,0 0,-4.5441 3.2867,0 0,0.87891 -2.121,0 0,0.7843 1.9684,0 0,0.87891 -1.9684,0 0,1.123 2.121,0 0,0.87891 z"
       id="path3732"
       style="fill:#ffffff" /><path
       inkscape:connector-curvature="0"
       d="m 476.893,118.49 -1.2238,4.5441 -1.297,0 -0.81482,-2.9602 -0.79346,2.9602 -1.297,0 -1.2238,-4.5441 1.2238,0 0.69885,3.1281 0.83618,-3.1281 1.1688,0 0.7965,3.1281 0.73243,-3.1281 1.1932,0 z"
       id="path3734"
       style="fill:#ffffff" /><path
       inkscape:connector-curvature="0"
       d="m 484.103,120.77 q 0,0.63477 -0.28992,1.1383 -0.28992,0.50049 -0.73242,0.76904 -0.33264,0.20142 -0.72937,0.28077 -0.39673,0.0793 -0.93994,0.0793 l -1.6022,0 0,-4.5441 1.6479,0 q 0.55542,0 0.95826,0.0946 0.40283,0.0915 0.67749,0.26245 0.46997,0.28686 0.73852,0.77515 0.27161,0.48523 0.27161,1.1444 z m -1.2116,-0.009 q 0,-0.44861 -0.16479,-0.76599 -0.16175,-0.32044 -0.51575,-0.50049 -0.18006,-0.0885 -0.36926,-0.11902 -0.18616,-0.0336 -0.56458,-0.0336 l -0.29602,0 0,2.8442 0.29602,0 q 0.41809,0 0.6134,-0.0366 0.19532,-0.0397 0.38147,-0.14038 0.32044,-0.18311 0.46997,-0.48828 0.14954,-0.30823 0.14954,-0.75989 z"
       id="path3736"
       style="fill:#ffffff" /><path
       inkscape:connector-curvature="0"
       d="m 487.543,119.88 q 0,-0.1709 -0.0702,-0.29297 -0.0702,-0.12207 -0.24109,-0.19226 -0.11902,-0.0488 -0.27771,-0.058 -0.15869,-0.0122 -0.36926,-0.0122 l -0.42419,0 0,1.2238 0.3601,0 q 0.28076,0 0.46997,-0.0275 0.18921,-0.0275 0.31739,-0.12512 0.12207,-0.0946 0.177,-0.20752 0.058,-0.11596 0.058,-0.30822 z m 1.828,3.1525 -1.4313,0 -1.239,-1.6663 -0.54016,0 0,1.6663 -1.1658,0 0,-4.5441 1.9653,0 q 0.40283,0 0.69274,0.0458 0.28992,0.0458 0.54322,0.19836 0.25635,0.15259 0.40588,0.39673 0.15259,0.24109 0.15259,0.6073 0,0.50354 -0.23499,0.82093 -0.23193,0.31738 -0.66528,0.52795 l 1.5167,1.947 z"
       id="path3738"
       style="fill:#ffffff" /><path
       inkscape:connector-curvature="0"
       d="m 492.353,123.03 -2.6611,0 0,-0.80566 0.74462,0 0,-2.9327 -0.74462,0 0,-0.80567 2.6611,0 0,0.80567 -0.74463,0 0,2.9327 0.74463,0 0,0.80566 z"
       id="path3740"
       style="fill:#ffffff" /><path
       inkscape:connector-curvature="0"
       d="m 497.433,118.49 -1.6571,4.5441 -1.3123,0 -1.6571,-4.5441 1.2299,0 1.0986,3.1921 1.0986,-3.1921 1.1993,0 z"
       id="path3742"
       style="fill:#ffffff" /><path
       inkscape:connector-curvature="0"
       d="m 501.373,123.03 -3.2867,0 0,-4.5441 3.2867,0 0,0.87891 -2.121,0 0,0.7843 1.9684,0 0,0.87891 -1.9684,0 0,1.123 2.121,0 0,0.87891 z"
       id="path3744"
       style="fill:#ffffff" /><path
       inkscape:connector-curvature="0"
       d="m 582.442,76.865 q -0.11586,0.23889 -0.34164,0.41769 -0.22303,0.18013 -0.50205,0.24492 -0.3049,0.0692 -0.64665,0.0256 -0.339,-0.0423 -0.75088,-0.24207 -0.44208,-0.21441 -0.75635,-0.46858 -0.31152,-0.25284 -0.59814,-0.59196 l 0.33027,-0.68097 0.0384,0.0186 q 0.1851,0.4086 0.52357,0.74573 0.33846,0.33713 0.69543,0.51026 0.50523,0.24504 0.8772,0.19141 0.37471,-0.0523 0.52786,-0.36807 0.13184,-0.27184 0.0599,-0.46615 -0.0692,-0.19298 -0.30643,-0.39621 -0.1793,-0.1548 -0.40363,-0.30769 -0.22157,-0.15155 -0.46403,-0.33698 -0.48775,-0.37901 -0.61685,-0.78418 -0.12502,-0.4066 0.0921,-0.85417 0.24904,-0.51348 0.84136,-0.62982 0.59365,-0.11909 1.2609,0.20452 0.4311,0.20908 0.75086,0.46591 0.31975,0.25683 0.53849,0.51216 l -0.31163,0.64253 -0.0384,-0.0187 q -0.13751,-0.3109 -0.45659,-0.62506 -0.31501,-0.31558 -0.71316,-0.50868 -0.43659,-0.21175 -0.79083,-0.1597 -0.3515,0.0534 -0.49,0.33895 -0.12385,0.25537 -0.0626,0.46482 0.0612,0.20945 0.35618,0.44748 0.15709,0.12367 0.45447,0.33573 0.29738,0.21206 0.49457,0.37893 0.39722,0.34188 0.50934,0.69813 0.11213,0.35624 -0.10094,0.79558 z"
       id="path4584"
       style="fill:#ffffff;stroke:#ffffff;stroke-width:0.30000001" /><path
       inkscape:connector-curvature="0"
       d="m 587.612,76.475 q 0.10388,0.39933 0.0277,0.85918 -0.0735,0.46128 -0.33466,0.95836 -0.2612,0.49707 -0.60353,0.82051 -0.33821,0.32216 -0.71634,0.45786 -0.39191,0.14226 -0.8047,0.10117 -0.41008,-0.0397 -0.84502,-0.26822 -0.42414,-0.22287 -0.69882,-0.54647 -0.27197,-0.32218 -0.37457,-0.71739 -0.1026,-0.39521 -0.0305,-0.85378 0.0747,-0.45715 0.33736,-0.95693 0.25836,-0.49167 0.59244,-0.81255 0.33551,-0.32358 0.73026,-0.47123 0.37685,-0.13983 0.80186,-0.0958 0.42772,0.0455 0.84375,0.26409 0.43224,0.22713 0.70009,0.55059 0.27198,0.32218 0.37471,0.71057 z m -0.86345,1.5251 q 0.41167,-0.78344 0.28335,-1.3921 -0.12691,-0.61138 -0.73475,-0.93078 -0.61323,-0.32224 -1.1887,-0.0799 -0.57136,0.24101 -0.98303,1.0244 -0.41593,0.79154 -0.28079,1.4004 0.13657,0.60611 0.7363,0.92126 0.59973,0.31514 1.1737,0.0824 0.57805,-0.23405 0.99398,-1.0256 z"
       id="path4586"
       style="fill:#ffffff;stroke:#ffffff;stroke-width:0.30000001" /><path
       inkscape:connector-curvature="0"
       d="m 589.592,82.195 -2.5038,-1.4126 2.2329,-3.9576 0.52626,0.29692 -1.9689,3.4898 1.9775,1.1157 -0.26393,0.4678 z"
       id="path4588"
       style="fill:#ffffff;stroke:#ffffff;stroke-width:0.30000001" /><path
       inkscape:connector-curvature="0"
       d="m 593.602,83.085 q -0.13682,0.22754 -0.37772,0.38536 -0.23829,0.1594 -0.522,0.1989 -0.30987,0.0416 -0.64633,-0.0325 -0.33384,-0.0726 -0.72614,-0.30845 -0.42107,-0.25319 -0.71127,-0.53452 -0.28758,-0.27976 -0.54264,-0.64323 l 0.39002,-0.64861 0.0366,0.022 q 0.1477,0.42355 0.45456,0.78969 0.30687,0.36613 0.64686,0.57058 0.48122,0.28937 0.8565,0.26932 0.3779,-0.0185 0.55875,-0.31924 0.15569,-0.25892 0.10146,-0.4589 -0.0516,-0.19841 -0.26966,-0.4221 -0.16469,-0.17026 -0.3744,-0.34265 -0.20709,-0.17082 -0.43194,-0.37725 -0.45178,-0.42122 -0.54402,-0.83635 -0.088,-0.41616 0.1683,-0.84246 0.29408,-0.48907 0.89445,-0.55182 0.60194,-0.0654 1.2375,0.31679 0.41061,0.24691 0.70604,0.53139 0.29543,0.28447 0.49038,0.55839 l -0.368,0.61199 -0.0366,-0.022 q -0.10908,-0.32198 -0.39869,-0.6635 -0.28543,-0.34256 -0.66466,-0.5706 -0.41584,-0.25005 -0.77332,-0.22998 -0.35487,0.0216 -0.51842,0.29363 -0.14626,0.24323 -0.10407,0.45733 0.0422,0.2141 0.3146,0.47762 0.14537,0.13726 0.42253,0.37514 0.27715,0.23788 0.45858,0.42176 0.36495,0.37614 0.44468,0.741 0.0797,0.36487 -0.17191,0.78332 z"
       id="path4590"
       style="fill:#ffffff;stroke:#ffffff;stroke-width:0.30000001" /><path
       inkscape:connector-curvature="0"
       d="m 598.652,83.095 -1.3665,-0.87667 -2.1636,3.3726 -0.50859,-0.32628 2.1637,-3.3726 -1.3665,-0.87667 0.29003,-0.45208 3.2416,2.0796 -0.29003,0.45207 z"
       id="path4592"
       style="fill:#ffffff;stroke:#ffffff;stroke-width:0.30000001" /><path
       inkscape:connector-curvature="0"
       d="m 598.322,87.715 -1.4877,-1.0034 0.25938,-0.38456 0.49336,0.33277 2.0222,-2.9981 -0.49336,-0.33276 0.25939,-0.38457 1.4877,1.0034 -0.25939,0.38457 -0.49336,-0.33277 -2.0222,2.9981 0.49336,0.33277 -0.25939,0.38457 z"
       id="path4594"
       style="fill:#ffffff;stroke:#ffffff;stroke-width:0.30000001" /><path
       inkscape:connector-curvature="0"
       d="m 602.232,90.065 q -0.17924,-0.0375 -0.32831,-0.0648 -0.14658,-0.0255 -0.36635,-0.0956 -0.18533,-0.0606 -0.38742,-0.15551 -0.20137,-0.0907 -0.4153,-0.24271 -0.40299,-0.28638 -0.6543,-0.63343 -0.24704,-0.34778 -0.31935,-0.76232 -0.0709,-0.40603 0.0529,-0.86468 0.12553,-0.46114 0.46848,-0.94374 0.32527,-0.45772 0.71095,-0.7265 0.38568,-0.26877 0.80624,-0.34429 0.4078,-0.0734 0.8313,0.0366 0.42598,0.11178 0.83395,0.40169 0.29851,0.21214 0.54327,0.49464 0.24725,0.28428 0.4814,0.72397 l -0.41543,0.58459 -0.0373,-0.0265 q -0.12389,-0.47366 -0.34181,-0.80448 -0.21791,-0.33082 -0.5612,-0.57477 -0.2811,-0.19976 -0.57288,-0.26858 -0.28753,-0.0695 -0.60027,-0.004 -0.30422,0.0646 -0.60453,0.28173 -0.29606,0.21641 -0.56123,0.58956 -0.27754,0.39055 -0.37281,0.7459 -0.0928,0.35711 -0.0516,0.65217 0.0433,0.30783 0.21103,0.56179 0.17196,0.25323 0.43067,0.43708 0.35573,0.25279 0.7533,0.35187 0.39758,0.0991 0.84197,0.048 l 0.0348,0.0247 -0.41012,0.57713 z"
       id="path4596"
       style="fill:#ffffff;stroke:#ffffff;stroke-width:0.30000001" /><path
       inkscape:connector-curvature="0"
       d="m 605.122,92.645 -2.3902,-1.8026 2.7361,-3.628 2.3902,1.8026 -0.32341,0.42883 -1.9078,-1.4388 -0.74972,0.9941 1.9078,1.4388 -0.3234,0.42883 -1.9078,-1.4388 -1.0162,1.3474 1.9078,1.4388 -0.32341,0.42883 z"
       id="path4598"
       style="fill:#ffffff;stroke:#ffffff;stroke-width:0.30000001" /><path
       inkscape:connector-curvature="0"
       d="m 612.002,95.285 q -0.39372,0.4783 -0.92344,0.69446 -0.52736,0.21809 -1.0502,0.1474 -0.36252,-0.0494 -0.7137,-0.2278 -0.34883,-0.17646 -0.83185,-0.57406 l -0.88592,-0.72925 2.8879,-3.5084 0.8765,0.72149 q 0.51364,0.42281 0.75317,0.74647 0.24382,0.32323 0.34685,0.62544 0.17389,0.51864 0.0677,1.0558 -0.10616,0.53714 -0.52703,1.0484 z m -0.48191,-0.40855 q 0.33941,-0.41233 0.42842,-0.81338 0.089,-0.40105 -0.0623,-0.79831 -0.11037,-0.28848 -0.30678,-0.52526 -0.19447,-0.23913 -0.51962,-0.50678 l -0.43825,-0.36075 -2.2285,2.7072 0.43825,0.36075 q 0.33693,0.27735 0.62741,0.43345 0.29284,0.15805 0.6131,0.19636 0.39924,0.048 0.75381,-0.11865 0.35692,-0.1647 0.6944,-0.57468 z"
       id="path4600"
       style="fill:#ffffff;stroke:#ffffff;stroke-width:0.30000001" /><path
       inkscape:connector-curvature="0"
       d="m 614.142,100.145 -0.59161,-0.51492 0.0397,-2.3605 -0.64225,-0.55899 -1.1861,1.3628 -0.45578,-0.39671 2.9833,-3.4276 0.95992,0.83548 q 0.31076,0.27048 0.48188,0.49223 0.17311,0.21946 0.24869,0.4673 0.0843,0.27969 0.0316,0.5494 -0.0484,0.26941 -0.2868,0.54335 -0.32258,0.37061 -0.72742,0.45924 -0.40284,0.0863 -0.83992,-0.0716 l -0.0152,2.6206 z m 1.078,-3.3907 q 0.12823,-0.14733 0.17346,-0.3062 0.0495,-0.15918 -0.002,-0.34163 -0.0409,-0.15291 -0.15466,-0.29644 -0.11177,-0.14583 -0.29593,-0.30612 l -0.53635,-0.46683 -1.126,1.2937 0.46039,0.40071 q 0.21639,0.18834 0.40958,0.29176 0.1952,0.10111 0.39815,0.0957 0.18774,-0.007 0.34427,-0.0888 0.16084,-0.0825 0.32914,-0.27589 z"
       id="path4602"
       style="fill:#ffffff;stroke:#ffffff;stroke-width:0.30000001" /><path
       inkscape:connector-curvature="0"
       d="m 615.762,101.625 -1.3302,-1.2043 0.31132,-0.34387 0.44116,0.39939 2.4271,-2.6809 -0.44116,-0.3994 0.31133,-0.34387 1.3302,1.2043 -0.31132,0.34387 -0.44116,-0.39939 -2.4271,2.6809 0.44116,0.3994 -0.31133,0.34387 z"
       id="path4604"
       style="fill:#ffffff;stroke:#ffffff;stroke-width:0.30000001" /><path
       inkscape:connector-curvature="0"
       d="m 622.252,101.465 -4.3156,2.1818 -0.5875,-0.5513 1.9032,-4.4455 0.47178,0.44271 -1.6964,3.8905 3.7749,-1.94 0.44953,0.42182 z"
       id="path4606"
       style="fill:#ffffff;stroke:#ffffff;stroke-width:0.30000001" /><path
       inkscape:connector-curvature="0"
       d="m 621.772,107.345 -2.143,-2.0905 3.1731,-3.2527 2.143,2.0905 -0.37506,0.38447 -1.7105,-1.6686 -0.86945,0.89127 1.7105,1.6686 -0.37505,0.38447 -1.7105,-1.6686 -1.1784,1.208 1.7105,1.6686 -0.37506,0.38447 z"
       id="path4608"
       style="fill:#ffffff;stroke:#ffffff;stroke-width:0.30000001" /><text
       id="Txt_DH_SR_USR_L1"
       style="font-size:5.00004007px;line-height:125%;font-family:sans-serif;letter-spacing:0px;word-spacing:0px;fill:#000000;"
       xml:space="preserve"
       y="82.002007"
       x="429.00824"
       line-height="125%"
       sodipodi:linespacing="125%"><tspan
         style="font-size:5.00004007px;"
         id="tspan4404"
         x="429.00824"
         y="82.002007">1</tspan></text>
<text
       id="Txt_DH_SR_USR_L2"
       style="font-size:5.00004007px;line-height:125%;font-family:sans-serif;letter-spacing:0px;word-spacing:0px;fill:#000000;"
       xml:space="preserve"
       y="80.912773"
       x="462.06586"
       line-height="125%"
       sodipodi:linespacing="125%"><tspan
         style="font-size:5.00004007px;"
         id="tspan4408"
         x="462.06586"
         y="80.912773">2</tspan></text>
<text
       id="Txt_DH_SR_USR_L3"
       style="font-size:5.00004007px;line-height:125%;font-family:sans-serif;letter-spacing:0px;word-spacing:0px;fill:#000000;"
       xml:space="preserve"
       y="164.86575"
       x="525.93835"
       line-height="125%"
       sodipodi:linespacing="125%"><tspan
         style="font-size:5.00004007px;"
         id="tspan4412"
         x="525.93835"
         y="164.86575">3</tspan></text>
<text
       id="Txt_DH_SR_USR_L4"
       style="font-size:5.00004007px;line-height:125%;font-family:sans-serif;letter-spacing:0px;word-spacing:0px;fill:#000000;"
       xml:space="preserve"
       y="170.01294"
       x="492.80621"
       line-height="125%"
       sodipodi:linespacing="125%"><tspan
         style="font-size:5.00004007px;"
         id="tspan4416"
         x="492.80621"
         y="170.01294">4</tspan></text>
<text
       id="Txt_DH_SR_USR_L5"
       style="font-size:5.00004007px;line-height:125%;font-family:sans-serif;letter-spacing:0px;word-spacing:0px;fill:#000000;"
       xml:space="preserve"
       y="171.26398"
       x="459.10895"
       line-height="125%"
       sodipodi:linespacing="125%"><tspan
         style="font-size:5.00004007px;"
         id="tspan4420"
         x="459.10895"
         y="171.26398">5</tspan></text>
<text
       id="Txt_DH_SR_USR_L6"
       style="font-size:5.00004007px;line-height:125%;font-family:sans-serif;letter-spacing:0px;word-spacing:0px;fill:#000000;"
       xml:space="preserve"
       y="172.62946"
       x="425.14703"
       line-height="125%"
       sodipodi:linespacing="125%"><tspan
         style="font-size:5.00004007px;"
         id="tspan4424"
         x="425.14703"
         y="172.62946">6</tspan></text>
<text
       id="Txt_DH_SR_USR_L7"
       style="font-size:5.00004007px;line-height:125%;font-family:sans-serif;letter-spacing:0px;word-spacing:0px;fill:#000000;"
       xml:space="preserve"
       y="183.3313"
       x="393.39563"
       line-height="125%"
       sodipodi:linespacing="125%"><tspan
         style="font-size:5.00004007px;"
         id="tspan4428"
         x="393.39563"
         y="183.3313">7</tspan></text>
<text
       id="Txt_DH_SR_USR_L8"
       style="font-size:5.00004007px;line-height:125%;font-family:sans-serif;letter-spacing:0px;word-spacing:0px;fill:#000000;"
       xml:space="preserve"
       y="199.15747"
       x="361.53339"
       line-height="125%"
       sodipodi:linespacing="125%"><tspan
         style="font-size:5.00004007px;"
         id="tspan4432"
         x="361.53339"
         y="199.15747">8</tspan></text>
<text
       id="Txt_DH_SR_USR_L9"
       style="font-size:5.00004007px;line-height:125%;font-family:sans-serif;letter-spacing:0px;word-spacing:0px;fill:#000000;"
       xml:space="preserve"
       y="219.89142"
       x="334.78571"
       line-height="125%"
       sodipodi:linespacing="125%"><tspan
         style="font-size:5.00004007px;"
         id="tspan4436"
         x="334.78571"
         y="219.89142">9</tspan></text>
<text
       id="Txt_DH_SR_USR_L10"
       style="font-size:5.00004007px;line-height:125%;font-family:sans-serif;letter-spacing:0px;word-spacing:0px;fill:#000000;"
       xml:space="preserve"
       y="240.01825"
       x="298.33911"
       line-height="125%"
       sodipodi:linespacing="125%"><tspan
         style="font-size:5.00004007px;"
         id="tspan4440"
         x="298.33911"
         y="240.01825">10</tspan></text>
<text
       id="Txt_DH_SR_USR_L11"
       style="font-size:5.00004007px;line-height:125%;font-family:sans-serif;letter-spacing:0px;word-spacing:0px;fill:#000000;"
       xml:space="preserve"
       y="260.16412"
       x="264.63763"
       line-height="125%"
       sodipodi:linespacing="125%"><tspan
         style="font-size:5.00004007px;"
         id="tspan4444"
         x="264.63763"
         y="260.16412">11</tspan></text>
<text
       id="Txt_DH_SR_USR_L12"
       style="font-size:5.00004007px;line-height:125%;font-family:sans-serif;letter-spacing:0px;word-spacing:0px;fill:#000000;"
       xml:space="preserve"
       y="276.59442"
       x="235.72179"
       line-height="125%"
       sodipodi:linespacing="125%"><tspan
         style="font-size:5.00004007px;"
         id="tspan4448"
         x="235.72179"
         y="276.59442">12</tspan></text>
<text
       id="Txt_DH_SR_USR_L13"
       style="font-size:5.00004007px;line-height:125%;font-family:sans-serif;letter-spacing:0px;word-spacing:0px;fill:#000000;"
       xml:space="preserve"
       y="293.33716"
       x="207.06535"
       line-height="125%"
       sodipodi:linespacing="125%"><tspan
         style="font-size:5.00004007px;"
         id="tspan4452"
         x="207.06535"
         y="293.33716">13</tspan></text>
<text
       id="Txt_DH_SR_USR_L14"
       style="font-size:5.00004007px;line-height:125%;font-family:sans-serif;letter-spacing:0px;word-spacing:0px;fill:#000000;"
       xml:space="preserve"
       y="309.30865"
       x="177.89159"
       line-height="125%"
       sodipodi:linespacing="125%"><tspan
         style="font-size:5.00004007px;"
         id="tspan4456"
         x="177.89159"
         y="309.30865">14</tspan></text>
<text
       id="Txt_DH_SR_USR_L15"
       style="font-size:5.00004007px;line-height:125%;font-family:sans-serif;letter-spacing:0px;word-spacing:0px;fill:#000000;"
       xml:space="preserve"
       y="324.20764"
       x="146.80357"
       line-height="125%"
       sodipodi:linespacing="125%"><tspan
         style="font-size:5.00004007px;"
         id="tspan4460"
         x="146.80357"
         y="324.20764">15</tspan></text>
<text
       id="Txt_DH_SR_USR_L16"
       style="font-size:5.00004007px;line-height:125%;font-family:sans-serif;letter-spacing:0px;word-spacing:0px;fill:#000000;"
       xml:space="preserve"
       y="347.89117"
       x="119.21166"
       line-height="125%"
       sodipodi:linespacing="125%"><tspan
         style="font-size:5.00004007px;"
         id="tspan4464"
         x="119.21166"
         y="347.89117">16</tspan></text>
<text
       id="Txt_DH_SR_USR_L17"
       style="font-size:5.00004007px;line-height:125%;font-family:sans-serif;letter-spacing:0px;word-spacing:0px;fill:#000000;"
       xml:space="preserve"
       y="375.03619"
       x="89.694206"
       line-height="125%"
       sodipodi:linespacing="125%"><tspan
         style="font-size:5.00004007px;"
         id="tspan4468"
         x="89.694206"
         y="375.03619">17</tspan></text>
<text
       id="Txt_DH_SR_USR_L18"
       style="font-size:5.00004007px;line-height:125%;font-family:sans-serif;letter-spacing:0px;word-spacing:0px;fill:#000000;"
       xml:space="preserve"
       y="395.11646"
       x="67.360283"
       line-height="125%"
       sodipodi:linespacing="125%"><tspan
         style="font-size:5.00004007px;"
         id="tspan4472"
         x="67.360283"
         y="395.11646">18</tspan></text>
<path
       class="land" id="Cir_DH_SR_USR_L1"
       d="m 432.56,91.33 a 1.7545,1.7545 0 0 1 -1.7545,1.7545 1.7545,1.7545 0 0 1 -1.7545,-1.7545 1.7545,1.7545 0 0 1 1.7545,-1.7545 1.7545,1.7545 0 0 1 1.7545,1.7545 z"
       inkscape:connector-curvature="0"
       style="fill-opacity:0.00392163" /><path
       class="land" id="Cir_DH_SR_USR_L2"
       d="m 465.6,89.343 a 1.7545,1.7545 0 0 1 -1.7545,1.7545 1.7545,1.7545 0 0 1 -1.7545,-1.7545 1.7545,1.7545 0 0 1 1.7545,-1.7545 1.7545,1.7545 0 0 1 1.7545,1.7545 z"
       inkscape:connector-curvature="0"
       style="fill-opacity:0.00392163" /><path
       class="land" id="Cir_DH_SR_USR_L3"
       d="m 532.97,175.15 a 1.7545,1.7545 0 0 1 -1.7545,1.7545 1.7545,1.7545 0 0 1 -1.7545,-1.7545 1.7545,1.7545 0 0 1 1.7545,-1.7545 1.7545,1.7545 0 0 1 1.7545,1.7545 z"
       inkscape:connector-curvature="0"
       style="fill-opacity:0.00392163" /><path
       class="land" id="Cir_DH_SR_USR_L4"
       d="m 500.82,181.02 a 1.7545,1.7545 0 0 1 -1.7545,1.7545 1.7545,1.7545 0 0 1 -1.7545,-1.7545 1.7545,1.7545 0 0 1 1.7545,-1.7545 1.7545,1.7545 0 0 1 1.7545,1.7545 z"
       inkscape:connector-curvature="0"
       style="fill-opacity:0.00392163" /><path
       class="land" id="Cir_DH_SR_USR_L5"
       d="m 465.41,180.23 a 1.7545,1.7545 0 0 1 -1.7545,1.7545 1.7545,1.7545 0 0 1 -1.7545,-1.7545 1.7545,1.7545 0 0 1 1.7545,-1.7545 1.7545,1.7545 0 0 1 1.7545,1.7545 z"
       inkscape:connector-curvature="0"
       style="fill-opacity:0.00392163" /><path
       class="land" id="Cir_DH_SR_USR_L6"
       d="m 431.97,182.62 a 1.7545,1.7545 0 0 1 -1.7545,1.7545 1.7545,1.7545 0 0 1 -1.7545,-1.7545 1.7545,1.7545 0 0 1 1.7545,-1.7545 1.7545,1.7545 0 0 1 1.7545,1.7545 z"
       inkscape:connector-curvature="0"
       style="fill-opacity:0.00392163" /><path
       class="land" id="Cir_DH_SR_USR_L7"
       d="m 401.94,191.8 a 1.7545,1.7545 0 0 1 -1.7545,1.7545 1.7545,1.7545 0 0 1 -1.7545,-1.7545 1.7545,1.7545 0 0 1 1.7545,-1.7545 1.7545,1.7545 0 0 1 1.7545,1.7545 z"
       inkscape:connector-curvature="0"
       style="fill-opacity:0.00392163" /><path
       class="land" id="Cir_DH_SR_USR_L8"
       d="m 371.18,207.17 a 1.7545,1.7545 0 0 1 -1.7545,1.7545 1.7545,1.7545 0 0 1 -1.7545,-1.7545 1.7545,1.7545 0 0 1 1.7545,-1.7545 1.7545,1.7545 0 0 1 1.7545,1.7545 z"
       inkscape:connector-curvature="0"
       style="fill-opacity:0.00392163" /><path
       class="land" id="Cir_DH_SR_USR_L9"
       d="m 344.27,228.01 a 1.7545,1.7545 0 0 1 -1.7545,1.7545 1.7545,1.7545 0 0 1 -1.7545,-1.7545 1.7545,1.7545 0 0 1 1.7545,-1.7545 1.7545,1.7545 0 0 1 1.7545,1.7545 z"
       inkscape:connector-curvature="0"
       style="fill-opacity:0.00392163" /><path
       class="land" id="Cir_DH_SR_USR_L10"
       d="m 310.19,248.73 a 1.7545,1.7545 0 0 1 -1.7545,1.7545 1.7545,1.7545 0 0 1 -1.7545,-1.7545 1.7545,1.7545 0 0 1 1.7545,-1.7545 1.7545,1.7545 0 0 1 1.7545,1.7545 z"
       inkscape:connector-curvature="0"
       style="fill-opacity:0.00392163" /><path
       class="land" id="Cir_DH_SR_USR_L11"
       d="m 277.11,269.77 a 1.7545,1.7545 0 0 1 -1.7545,1.7545 1.7545,1.7545 0 0 1 -1.7545,-1.7545 1.7545,1.7545 0 0 1 1.7545,-1.7545 1.7545,1.7545 0 0 1 1.7545,1.7545 z"
       inkscape:connector-curvature="0"
       style="fill-opacity:0.00392163" /><path
       class="land" id="Cir_DH_SR_USR_L12"
       d="m 248.9,285.4 a 1.7545,1.7545 0 0 1 -1.7545,1.7545 1.7545,1.7545 0 0 1 -1.7545,-1.7545 1.7545,1.7545 0 0 1 1.7545,-1.7545 1.7545,1.7545 0 0 1 1.7545,1.7545 z"
       inkscape:connector-curvature="0"
       style="fill-opacity:0.00392163" /><path
       class="land" id="Cir_DH_SR_USR_L13"
       d="m 218.91,302.21 a 1.7545,1.7545 0 0 1 -1.7545,1.7545 1.7545,1.7545 0 0 1 -1.7545,-1.7545 1.7545,1.7545 0 0 1 1.7545,-1.7545 1.7545,1.7545 0 0 1 1.7545,1.7545 z"
       inkscape:connector-curvature="0"
       style="fill-opacity:0.00392163" /><path
       class="land" id="Cir_DH_SR_USR_L14"
       d="m 189.96,318.45 a 1.7545,1.7545 0 0 1 -1.7545,1.7545 1.7545,1.7545 0 0 1 -1.7545,-1.7545 1.7545,1.7545 0 0 1 1.7545,-1.7545 1.7545,1.7545 0 0 1 1.7545,1.7545 z"
       inkscape:connector-curvature="0"
       style="fill-opacity:0.00392163" /><path
       class="land" id="Cir_DH_SR_USR_L15"
       d="m 160.33,332.29 a 1.7545,1.7545 0 0 1 -1.7545,1.7545 1.7545,1.7545 0 0 1 -1.7545,-1.7545 1.7545,1.7545 0 0 1 1.7545,-1.7545 1.7545,1.7545 0 0 1 1.7545,1.7545 z"
       inkscape:connector-curvature="0"
       style="fill-opacity:0.00392163" /><path
       class="land" id="Cir_DH_SR_USR_L16"
       d="m 132.88,354.47 a 1.7545,1.7545 0 0 1 -1.7545,1.7545 1.7545,1.7545 0 0 1 -1.7545,-1.7545 1.7545,1.7545 0 0 1 1.7545,-1.7545 1.7545,1.7545 0 0 1 1.7545,1.7545 z"
       inkscape:connector-curvature="0"
       style="fill-opacity:0.00392163" /><path
       class="land" id="Cir_DH_SR_USR_L17"
       d="m 104.9,381.66 a 1.7545,1.7545 0 0 1 -1.7545,1.7545 1.7545,1.7545 0 0 1 -1.7545,-1.7545 1.7545,1.7545 0 0 1 1.7545,-1.7545 1.7545,1.7545 0 0 1 1.7545,1.7545 z"
       inkscape:connector-curvature="0"
       style="fill-opacity:0.00392163" /><path
       class="land" id="Cir_DH_SR_USR_L18"
       d="M 83.118,403.1 A 1.7545,1.7545 0 0 1 81.3635,404.8545 1.7545,1.7545 0 0 1 79.609,403.1 1.7545,1.7545 0 0 1 81.3635,401.3455 1.7545,1.7545 0 0 1 83.118,403.1 Z"
       inkscape:connector-curvature="0"
       style="fill-opacity:0.00392163" /><path
       class="land" id="Star_DH_SR_USR_L1"
       d="m 432.84,68.642 -1.6264,-0.55152 -1.3763,1.0271 0.0219,-1.7172 -1.4021,-0.99158 1.6399,-0.50977 0.50977,-1.6399 0.99158,1.4021 1.7172,-0.02195 -1.0271,1.3763 z"
       inkscape:connector-curvature="0"
       style="fill-opacity:0.00392163" /><path
       class="land" id="Star_DH_SR_USR_L2"
       d="m 465.78,69.678 -1.6264,-0.55152 -1.3763,1.0271 0.0219,-1.7172 -1.4021,-0.99158 1.6399,-0.50977 0.50977,-1.6399 0.99158,1.4021 1.7172,-0.02195 -1.0271,1.3763 z"
       inkscape:connector-curvature="0"
       style="fill-opacity:0.00392163" /><path
       class="land" id="Star_DH_SR_USR_L3"
       d="m 526.92,151.94 -1.6264,-0.55152 -1.3763,1.0271 0.0219,-1.7172 -1.4021,-0.99159 1.6399,-0.50976 0.50977,-1.6399 0.99158,1.4021 1.7172,-0.022 -1.0271,1.3763 z"
       inkscape:connector-curvature="0"
       style="fill-opacity:0.00392163" /><path
       class="land" id="Star_DH_SR_USR_L4"
       d="m 494.08,157.75 -1.6264,-0.55152 -1.3763,1.0271 0.022,-1.7172 -1.4021,-0.99159 1.6399,-0.50976 0.50976,-1.6399 0.99159,1.4021 1.7172,-0.022 -1.0271,1.3763 z"
       inkscape:connector-curvature="0"
       style="fill-opacity:0.00392163" /><path
       class="land" id="Star_DH_SR_USR_L5"
       d="m 460.83,160.24 -1.6264,-0.55152 -1.3763,1.0271 0.022,-1.7172 -1.4021,-0.99158 1.6399,-0.50977 0.50977,-1.6399 0.99158,1.4021 1.7172,-0.022 -1.0271,1.3763 z"
       inkscape:connector-curvature="0"
       style="fill-opacity:0.00392163" /><path
       class="land" id="Star_DH_SR_USR_L6"
       d="m 426.22,160.27 -1.6264,-0.55152 -1.3763,1.0271 0.022,-1.7172 -1.4021,-0.99158 1.6399,-0.50977 0.50977,-1.6399 0.99158,1.4021 1.7172,-0.022 -1.0271,1.3763 z"
       inkscape:connector-curvature="0"
       style="fill-opacity:0.00392163" /><path
       class="land" id="Star_DH_SR_USR_L7"
       d="m 393.69,170.32 -1.6264,-0.55152 -1.3763,1.0271 0.022,-1.7172 -1.4021,-0.99158 1.6399,-0.50977 0.50977,-1.6399 0.99158,1.4021 1.7172,-0.022 -1.0271,1.3763 z"
       inkscape:connector-curvature="0"
       style="fill-opacity:0.00392163" /><path
       class="land" id="Star_DH_SR_USR_L8"
       d="m 360.67,188.35 -1.6264,-0.55151 -1.3763,1.0271 0.022,-1.7172 -1.4021,-0.99158 1.6399,-0.50976 0.50976,-1.6399 0.99159,1.4021 1.7172,-0.0219 -1.0271,1.3763 z"
       inkscape:connector-curvature="0"
       style="fill-opacity:0.00392163" /><path
       class="land" id="Star_DH_SR_USR_L9"
       d="m 333.24,209.08 -1.6264,-0.55151 -1.3763,1.0271 0.022,-1.7172 -1.4021,-0.99158 1.6399,-0.50976 0.50976,-1.6399 0.99159,1.4021 1.7172,-0.022 -1.0271,1.3763 z"
       inkscape:connector-curvature="0"
       style="fill-opacity:0.00392163" /><path
       class="land" id="Star_DH_SR_USR_L10"
       d="m 298.3,227.9 -1.6264,-0.55152 -1.3763,1.0271 0.022,-1.7172 -1.4021,-0.99158 1.6399,-0.50977 0.50976,-1.6399 0.99158,1.4021 1.7172,-0.022 -1.0271,1.3763 z"
       inkscape:connector-curvature="0"
       style="fill-opacity:0.00392163" /><path
       class="land" id="Star_DH_SR_USR_L11"
       d="m 265.13,248.64 -1.6264,-0.55151 -1.3763,1.0271 0.022,-1.7172 -1.4021,-0.99158 1.6399,-0.50976 0.50977,-1.6399 0.99158,1.4021 1.7172,-0.022 -1.0271,1.3763 z"
       inkscape:connector-curvature="0"
       style="fill-opacity:0.00392163" /><path
       class="land" id="Star_DH_SR_USR_L12"
       d="m 235.46,263.63 -1.6264,-0.55152 -1.3763,1.0271 0.022,-1.7172 -1.4021,-0.99158 1.6399,-0.50977 0.50976,-1.6399 0.99159,1.4021 1.7172,-0.022 -1.0271,1.3763 z"
       inkscape:connector-curvature="0"
       style="fill-opacity:0.00392163" /><path
       class="land" id="Star_DH_SR_USR_L13"
       d="m 207.23,281.49 -1.6264,-0.55151 -1.3763,1.0271 0.022,-1.7172 -1.4021,-0.99158 1.6399,-0.50976 0.50977,-1.6399 0.99158,1.4021 1.7172,-0.022 -1.0271,1.3763 z"
       inkscape:connector-curvature="0"
       style="fill-opacity:0.00392163" /><path
       class="land" id="Star_DH_SR_USR_L14"
       d="m 178.36,297.13 -1.6264,-0.55152 -1.3763,1.0271 0.022,-1.7172 -1.4021,-0.99158 1.6399,-0.50977 0.50976,-1.6399 0.99158,1.4021 1.7172,-0.022 -1.0271,1.3763 z"
       inkscape:connector-curvature="0"
       style="fill-opacity:0.00392163" /><path
       class="land" id="Star_DH_SR_USR_L15"
       d="m 146.62,313.71 -1.6264,-0.55152 -1.3763,1.0271 0.0219,-1.7172 -1.4021,-0.99158 1.6399,-0.50977 0.50977,-1.6399 0.99158,1.4021 1.7172,-0.022 -1.0271,1.3763 z"
       inkscape:connector-curvature="0"
       style="fill-opacity:0.00392163" /><path
       class="land" id="Star_DH_SR_USR_L17"
       d="m 85.053,363.16 -1.6264,-0.55152 -1.3763,1.0271 0.02195,-1.7172 -1.4021,-0.99158 1.6399,-0.50977 0.50977,-1.6399 0.99158,1.4021 1.7172,-0.022 -1.0271,1.3763 z"
       inkscape:connector-curvature="0"
       style="fill-opacity:0.00392163" /><path
       class="land" id="Star_DH_SR_USR_L18"
       d="m 64.478,384.37 -1.6264,-0.55152 -1.3763,1.0271 0.02195,-1.7172 -1.4021,-0.99158 1.6399,-0.50977 0.50977,-1.6399 0.99158,1.4021 1.7172,-0.0219 -1.0271,1.3763 z"
       inkscape:connector-curvature="0"
       style="fill-opacity:0.00392163" /><path
       class="land" id="Star_DH_SR_USR_L16"
       d="m 116.18,336.99 -1.6264,-0.55152 -1.3763,1.0271 0.022,-1.7172 -1.4021,-0.99158 1.6399,-0.50977 0.50976,-1.6399 0.99159,1.4021 1.7172,-0.022 -1.0271,1.3763 z"
       inkscape:connector-curvature="0"
       style="fill-opacity:0.00392163" /></g></svg>